<?xml version="1.0" encoding="UTF-8"?>
<!DOCTYPE svg PUBLIC "-//W3C//DTD SVG 1.1//EN" "http://www.w3.org/Graphics/SVG/1.1/DTD/svg11.dtd">
<!-- Creator: CorelDRAW 2020 (64-Bit) -->
<svg xmlns="http://www.w3.org/2000/svg" xml:space="preserve" width="135.467mm" height="135.467mm" version="1.1" style="shape-rendering:geometricPrecision; text-rendering:geometricPrecision; image-rendering:optimizeQuality; fill-rule:evenodd; clip-rule:evenodd"
viewBox="0 0 13546.74 13546.71"
 xmlns:xlink="http://www.w3.org/1999/xlink"
 xmlns:xodm="http://www.corel.com/coreldraw/odm/2003">
 <defs>
  <style type="text/css">
   <![CDATA[
    .fil0 {fill:white;fill-rule:nonzero}
   ]]>
  </style>
 </defs>
 <g id="Слой_x0020_1">
  <metadata id="CorelCorpID_0Corel-Layer"/>
  <g id="_788520448">
   <path class="fil0" d="M11562.86 1983.85c-1279.34,-1279.29 -2980.28,-1983.85 -4789.5,-1983.85 -1809.22,0 -3510.16,704.56 -4789.5,1983.85 -1279.29,1279.34 -1983.85,2980.28 -1983.85,4789.5 0,1809.22 704.56,3510.16 1983.85,4789.5 1279.34,1279.29 2980.28,1983.85 4789.5,1983.85l0 -793.75c-3297.17,0 -5979.59,-2682.44 -5979.59,-5979.59 0,-3297.16 2682.44,-5979.59 5979.59,-5979.59 3297.16,0 5979.59,2682.44 5979.59,5979.59l0 2022.9c0,581.37 -472.97,1054.34 -1054.31,1054.34 -581.34,0 -1054.31,-472.97 -1054.31,-1054.34l0 -5033.39 -793.75 -0.01 0 664.85c-0.03,-0.05 -0.08,-0.11 -0.13,-0.16 -707.76,-926.31 -1823.77,-1525.06 -3077.11,-1525.06 -2134.39,0 -3870.86,1736.46 -3870.86,3870.86 0,2134.39 1736.49,3870.86 3870.89,3870.86 1266.8,0 2393.67,-611.69 3100.37,-1555.43 140.6,880.53 905.43,1555.56 1824.94,1555.56 1019.02,0 1848.06,-829.05 1848.06,-1848.09l0 -2022.9c-0.03,-1809.22 -704.59,-3510.16 -1983.87,-4789.5l-0.01 0.01zm-4789.5 7866.61c-1696.77,0 -3077.11,-1380.33 -3077.11,-3077.11 0,-1696.77 1380.33,-3077.11 3077.11,-3077.11 1696.77,0 3077.11,1380.33 3077.11,3077.11 0,1696.77 -1380.33,3077.11 -3077.11,3077.11z"/>
  </g>
 </g>
</svg>
